{
    "DA Warner's strikeRate": {
        "2009": {
            "balls": 132,
            "runs": 163,
            "strick_rate": "123.48"
        },
        "2010": {
            "balls": 191,
            "runs": 282,
            "strick_rate": "147.64"
        },
        "2011": {
            "balls": 276,
            "runs": 324,
            "strick_rate": "117.39"
        },
        "2012": {
            "balls": 156,
            "runs": 256,
            "strick_rate": "164.10"
        },
        "2013": {
            "balls": 324,
            "runs": 410,
            "strick_rate": "126.54"
        },
        "2014": {
            "balls": 375,
            "runs": 528,
            "strick_rate": "140.80"
        },
        "2015": {
            "balls": 359,
            "runs": 562,
            "strick_rate": "156.55"
        },
        "2016": {
            "balls": 561,
            "runs": 848,
            "strick_rate": "151.16"
        },
        "2017": {
            "balls": 452,
            "runs": 641,
            "strick_rate": "141.81"
        }
    }
}